$ strace cp README test
execve("/bin/cp", ["cp", "README", "test"], 0x7ffd01453380) = 0
[...]
open("README", O_RDONLY)    = 3
fstat(3, {st_mode=S_IFREG|0644, st_size=445, ...}) = 0
open("test", O_WRONLY|O_CREAT|O_EXCL, 0644) = 4
fstat(4, {st_mode=S_IFREG|0644, st_size=0, ...}) = 0
read(3, "Lorem ipsum dolor sit amet, cons"..., 131072) = 445
write(4, "Lorem ipsum dolor sit amet, cons"..., 445) = 445
read(3, "", 131072)                     = 0
close(4)                                = 0
close(3)                                = 0
[...]
+++ exited with 0 +++
